<?xml version="1.0" encoding="UTF-8" standalone="no"?>
<!-- Created with Inkscape (http://www.inkscape.org/) -->

<svg
   xmlns:dc="http://purl.org/dc/elements/1.1/"
   xmlns:cc="http://creativecommons.org/ns#"
   xmlns:rdf="http://www.w3.org/1999/02/22-rdf-syntax-ns#"
   xmlns:svg="http://www.w3.org/2000/svg"
   xmlns="http://www.w3.org/2000/svg"
   xmlns:sodipodi="http://sodipodi.sourceforge.net/DTD/sodipodi-0.dtd"
   xmlns:inkscape="http://www.inkscape.org/namespaces/inkscape"
   width="100mm"
   height="100mm"
   viewBox="0 0 100 100"
   version="1.1"
   id="svg8"
   inkscape:version="0.92.2 5c3e80d, 2017-08-06"
   sodipodi:docname="uploadbubble.svg">
  <defs
     id="defs2">
    <inkscape:path-effect
       effect="mirror_symmetry"
       start_point="50.173989,7.0194048"
       end_point="50.173989,87.204345"
       center_point="50.173989,47.111875"
       id="path-effect831"
       is_visible="true"
       mode="free"
       discard_orig_path="false"
       fuse_paths="true"
       oposite_fuse="false" />
    <inkscape:path-effect
       effect="mirror_symmetry"
       start_point="49.892857,9.738095"
       end_point="49.892857,70.970237"
       center_point="49.892857,40.354166"
       id="path-effect827"
       is_visible="true"
       mode="free"
       discard_orig_path="false"
       fuse_paths="true"
       oposite_fuse="false" />
  </defs>
  <sodipodi:namedview
     id="base"
     pagecolor="#ffffff"
     bordercolor="#666666"
     borderopacity="1.0"
     inkscape:pageopacity="0.0"
     inkscape:pageshadow="2"
     inkscape:zoom="1.4"
     inkscape:cx="151.12242"
     inkscape:cy="187.42528"
     inkscape:document-units="mm"
     inkscape:current-layer="layer1"
     showgrid="false"
     fit-margin-top="0"
     fit-margin-left="0"
     fit-margin-right="0"
     fit-margin-bottom="0"
     inkscape:window-width="1366"
     inkscape:window-height="711"
     inkscape:window-x="0"
     inkscape:window-y="0"
     inkscape:window-maximized="1" />
  <metadata
     id="metadata5">
    <rdf:RDF>
      <cc:Work
         rdf:about="">
        <dc:format>image/svg+xml</dc:format>
        <dc:type
           rdf:resource="http://purl.org/dc/dcmitype/StillImage" />
        <dc:title></dc:title>
      </cc:Work>
    </rdf:RDF>
  </metadata>
  <g
     inkscape:label="Layer 1"
     inkscape:groupmode="layer"
     id="layer1"
     transform="translate(-0.37797546)">
    <path
       style="opacity:1;fill:#292b2c;fill-opacity:1;stroke:none;stroke-width:1.10941052;stroke-linecap:round;stroke-miterlimit:4;stroke-dasharray:none;stroke-dashoffset:0;stroke-opacity:1"
       id="path817"
       sodipodi:type="arc"
       sodipodi:cx="50.377975"
       sodipodi:cy="50"
       sodipodi:rx="50"
       sodipodi:ry="50"
       sodipodi:start="6.2743714"
       sodipodi:end="6.2740921"
       sodipodi:open="true"
       d="M 100.37603,49.55931 A 50,50 0 0 1 50.822156,99.998027 50,50 0 0 1 0.37997961,50.447672 50,50 0 0 1 49.926812,0.00203552 50,50 0 0 1 100.37591,49.545346" />
    <path
       style="fill:#ffffff;stroke:none;stroke-width:0.52164066px;stroke-linecap:butt;stroke-linejoin:miter;stroke-opacity:1"
       d="m 20.58286,38.941374 h 18.266129 v 48.262977 h 11.325 11.325 V 38.941374 H 79.765118 C 70.10063,28.126357 59.677664,17.791316 50.173989,7.0194065 40.670314,17.791316 30.247348,28.126357 20.58286,38.941374 Z"
       id="path829"
       inkscape:connector-curvature="0"
       sodipodi:nodetypes="cccccc"
       inkscape:path-effect="#path-effect831"
       inkscape:original-d="M 20.58286,38.941374 H 38.848989 V 87.204351 H 50.17399 V 7.0194054 C 40.670315,17.791315 30.247348,28.126357 20.58286,38.941374 Z" />
  </g>
</svg>
